[gd_scene load_steps=2 format=1]

[ext_resource path="res://scenes/characters/Elly/FSM/transitions/attack_to_idle/attack_to_idle.gd" type="Script" id=1]

[node name="attack_to_idle" type="Node"]

script/script = ExtResource( 1 )
path2SourceStates = [ NodePath("") ]
path2TargetState = null
intervalBetweenChecks = -1.0


