[gd_scene load_steps=4 format=1]

[ext_resource path="res://scenes/menus/Game_Over_menu/game_over_menu.png" type="Texture" id=1]
[ext_resource path="res://scenes/menus/Game_Over_menu/game_over.png" type="Texture" id=2]

[sub_resource type="GDScript" id=1]

script/source = "extends Node

func _ready():
	get_node(\"back_button\").connect(\"pressed\", self, \"on_back_pressed\")

func on_back_pressed():
	get_tree().change_scene(\"res://scenes/menus/Main_menu/Main_menu.tscn\")"

[node name="Game_Over_menu" type="Node"]

script/script = SubResource( 1 )

[node name="TextureFrame" type="TextureFrame" parent="."]

focus/ignore_mouse = true
focus/stop_mouse = true
size_flags/horizontal = 2
size_flags/vertical = 2
margin/left = 412.0
margin/top = 300.0
margin/right = 612.0
margin/bottom = 425.0
texture = ExtResource( 1 )
stretch_mode = 0

[node name="game_over_text" type="RichTextLabel" parent="."]

focus/ignore_mouse = false
focus/stop_mouse = true
size_flags/horizontal = 2
size_flags/vertical = 2
margin/left = 466.0
margin/top = 344.0
margin/right = 544.0
margin/bottom = 380.0
bbcode/enabled = false
bbcode/bbcode = "You ran out of lives."
visible_characters = -1

[node name="back_button" type="Button" parent="."]

focus/ignore_mouse = false
focus/stop_mouse = true
size_flags/horizontal = 2
size_flags/vertical = 2
margin/left = 442.0
margin/top = 525.0
margin/right = 582.0
margin/bottom = 550.0
toggle_mode = false
enabled_focus_mode = 2
shortcut = null
text = "Back to main menu"
flat = false

[node name="game_over" type="TextureFrame" parent="."]

focus/ignore_mouse = true
focus/stop_mouse = true
size_flags/horizontal = 2
size_flags/vertical = 2
margin/left = 339.0
margin/top = 126.5
margin/right = 685.0
margin/bottom = 173.5
texture = ExtResource( 2 )
stretch_mode = 0


