[gd_scene load_steps=3 format=1]

[ext_resource path="res://scenes/menus/Main_menu/title.png" type="Texture" id=1]

[sub_resource type="GDScript" id=1]

script/source = "extends Node

func _ready():
	get_node(\"play_button\").connect(\"pressed\", self, \"on_play_pressed\")
	get_node(\"tutorial_button\").connect(\"pressed\", self, \"on_tutorial_pressed\")
	get_node(\"quit_button\").connect(\"pressed\", self, \"on_quit_pressed\")

func on_play_pressed():
	get_tree().change_scene(\"res://scenes/levels/Level_1/Level_1.tscn\")

func on_tutorial_pressed():
	get_tree().change_scene(\"res://scenes/menus/Tutorial_menu/Tutorial_menu.tscn\")

func on_quit_pressed():
	get_tree().quit()
"

[node name="Main_menu" type="Node"]

script/script = SubResource( 1 )

[node name="play_button" type="Button" parent="."]

focus/ignore_mouse = false
focus/stop_mouse = true
size_flags/horizontal = 2
size_flags/vertical = 2
margin/left = 462.0
margin/top = 375.0
margin/right = 562.0
margin/bottom = 400.0
toggle_mode = false
enabled_focus_mode = 2
shortcut = null
text = "Play"
flat = false

[node name="tutorial_button" type="Button" parent="."]

focus/ignore_mouse = false
focus/stop_mouse = true
size_flags/horizontal = 2
size_flags/vertical = 2
margin/left = 462.0
margin/top = 450.0
margin/right = 562.0
margin/bottom = 475.0
toggle_mode = false
enabled_focus_mode = 2
shortcut = null
text = "Tutorial"
flat = false

[node name="quit_button" type="Button" parent="."]

focus/ignore_mouse = false
focus/stop_mouse = true
size_flags/horizontal = 2
size_flags/vertical = 2
margin/left = 462.0
margin/top = 525.0
margin/right = 562.0
margin/bottom = 550.0
toggle_mode = false
enabled_focus_mode = 2
shortcut = null
text = "Quit"
flat = false

[node name="title" type="TextureFrame" parent="."]

focus/ignore_mouse = true
focus/stop_mouse = true
size_flags/horizontal = 2
size_flags/vertical = 2
margin/left = 170.0
margin/top = 108.5
margin/right = 854.0
margin/bottom = 191.5
texture = ExtResource( 1 )
stretch_mode = 0


