[gd_scene load_steps=2 format=1]

[ext_resource path="res://scenes/characters/Mouse/FSM/transitions/hunt_to_attack/hunt_to_attack.gd" type="Script" id=1]

[node name="hunt_to_attack" type="Node"]

script/script = ExtResource( 1 )
path2SourceStates = [ NodePath("") ]
path2TargetState = null
intervalBetweenChecks = -1.0


